<?xml version='1.0' encoding='UTF-8'?>
<!-- This file was generated by dvisvgm 2.13.3 -->
<svg version='1.1' xmlns='http://www.w3.org/2000/svg' xmlns:xlink='http://www.w3.org/1999/xlink' width='235.29708pt' height='96.39852pt' viewBox='-72.00003 -72.00005 235.29708 96.39852'>
<g id='page1'>
<path d='M-31.5-65.8242C-31.5-69.125-34.1758-71.8008-37.4766-71.8008C-40.7773-71.8008-43.4531-69.125-43.4531-65.8242S-40.7773-59.8477-37.4766-59.8477C-34.1758-59.8477-31.5-62.5234-31.5-65.8242Z' fill='#fff'/>
<path d='M-31.5-65.8242C-31.5-69.125-34.1758-71.8008-37.4766-71.8008C-40.7773-71.8008-43.4531-69.125-43.4531-65.8242S-40.7773-59.8477-37.4766-59.8477C-34.1758-59.8477-31.5-62.5234-31.5-65.8242Z' stroke='#000' fill='none' stroke-width='.3985' stroke-miterlimit='10'/>
<path d='M-59.84375-37.4766C-59.84375-40.7773-62.52344-43.4531-65.824222-43.4531C-69.125-43.4531-71.80078-40.7773-71.80078-37.4766C-71.80078-34.1758-69.125-31.5-65.824222-31.5C-62.52344-31.5-59.84375-34.1758-59.84375-37.4766Z' fill='#fff'/>
<path d='M-59.84375-37.4766C-59.84375-40.7773-62.52344-43.4531-65.824222-43.4531C-69.125-43.4531-71.80078-40.7773-71.80078-37.4766C-71.80078-34.1758-69.125-31.5-65.824222-31.5C-62.52344-31.5-59.84375-34.1758-59.84375-37.4766Z' stroke='#000' fill='none' stroke-width='.3985' stroke-miterlimit='10'/>
<path d='M-3.1523-37.4766C-3.1523-40.7773-5.8281-43.4531-9.1289-43.4531S-15.1055-40.7773-15.1055-37.4766C-15.1055-34.1758-12.4297-31.5-9.1289-31.5S-3.1523-34.1758-3.1523-37.4766Z' fill='#fff'/>
<path d='M-3.1523-37.4766C-3.1523-40.7773-5.8281-43.4531-9.1289-43.4531S-15.1055-40.7773-15.1055-37.4766C-15.1055-34.1758-12.4297-31.5-9.1289-31.5S-3.1523-34.1758-3.1523-37.4766Z' stroke='#000' fill='none' stroke-width='.3985' stroke-miterlimit='10'/>
<path d='M11.0195-9.1289C11.0195-12.4336 8.3437-15.1094 5.043-15.1094C1.7422-15.1094-.9336-12.4336-.9336-9.1289C-.9336-5.8281 1.7422-3.1523 5.043-3.1523C8.3437-3.1523 11.0195-5.8281 11.0195-9.1289Z' fill='#fff'/>
<path d='M11.0195-9.1289C11.0195-12.4336 8.3437-15.1094 5.043-15.1094C1.7422-15.1094-.9336-12.4336-.9336-9.1289C-.9336-5.8281 1.7422-3.1523 5.043-3.1523C8.3437-3.1523 11.0195-5.8281 11.0195-9.1289Z' stroke='#000' fill='none' stroke-width='.3985' stroke-miterlimit='10'/>
<path d='M-61.45703-41.8438L-41.8438-61.457' stroke='#000' fill='none' stroke-width='.3985' stroke-miterlimit='10'/>
<path d='M-13.4961-41.8438L-33.1094-61.457' stroke='#000' fill='none' stroke-width='.3985' stroke-miterlimit='10'/>
<path d='M-6.3672-31.9531L2.2812-14.6563' stroke='#000' fill='none' stroke-width='.3985' stroke-miterlimit='10'/>
<path d='M110.2348-65.8242C110.2348-69.125 107.5588-71.8008 104.2578-71.8008S98.2808-69.125 98.2808-65.8242S100.9568-59.8477 104.2578-59.8477S110.2348-62.5234 110.2348-65.8242Z' fill='#fff'/>
<path d='M110.2348-65.8242C110.2348-69.125 107.5588-71.8008 104.2578-71.8008S98.2808-69.125 98.2808-65.8242S100.9568-59.8477 104.2578-59.8477S110.2348-62.5234 110.2348-65.8242Z' stroke='#000' fill='none' stroke-width='.3985' stroke-miterlimit='10'/>
<path d='M81.8868-37.4766C81.8868-40.7773 79.2108-43.4531 75.9098-43.4531C72.6098-43.4531 69.9338-40.7773 69.9338-37.4766C69.9338-34.1758 72.6098-31.5 75.9098-31.5C79.2108-31.5 81.8868-34.1758 81.8868-37.4766Z' fill='#fff'/>
<path d='M81.8868-37.4766C81.8868-40.7773 79.2108-43.4531 75.9098-43.4531C72.6098-43.4531 69.9338-40.7773 69.9338-37.4766C69.9338-34.1758 72.6098-31.5 75.9098-31.5C79.2108-31.5 81.8868-34.1758 81.8868-37.4766Z' stroke='#000' fill='none' stroke-width='.3985' stroke-miterlimit='10'/>
<path d='M56.7578-4.1484H66.7188V-14.1133H56.7578Z' fill='#fff'/>
<path d='M56.7578-4.1484H66.7188V-14.1133H56.7578Z' stroke='#000' fill='none' stroke-width='.3985' stroke-miterlimit='10'/>
<path d='M85.1018-4.1484H95.0668V-14.1133H85.1018Z' fill='#fff'/>
<path d='M85.1018-4.1484H95.0668V-14.1133H85.1018Z' stroke='#000' fill='none' stroke-width='.3985' stroke-miterlimit='10'/>
<path d='M138.5818-37.4766C138.5818-40.7773 135.9058-43.4531 132.6058-43.4531C129.3048-43.4531 126.6248-40.7773 126.6248-37.4766C126.6248-34.1758 129.3048-31.5 132.6058-31.5C135.9058-31.5 138.5818-34.1758 138.5818-37.4766Z' fill='#fff'/>
<path d='M138.5818-37.4766C138.5818-40.7773 135.9058-43.4531 132.6058-43.4531C129.3048-43.4531 126.6248-40.7773 126.6248-37.4766C126.6248-34.1758 129.3048-31.5 132.6058-31.5C135.9058-31.5 138.5818-34.1758 138.5818-37.4766Z' stroke='#000' fill='none' stroke-width='.3985' stroke-miterlimit='10'/>
<path d='M113.4488-4.1484H123.4138V-14.1133H113.4488Z' fill='#fff'/>
<path d='M113.4488-4.1484H123.4138V-14.1133H113.4488Z' stroke='#000' fill='none' stroke-width='.3985' stroke-miterlimit='10'/>
<path d='M152.7538-9.1289C152.7538-12.4336 150.0778-15.1094 146.7778-15.1094C143.4768-15.1094 140.8008-12.4336 140.8008-9.1289C140.8008-5.8281 143.4768-3.1523 146.7778-3.1523C150.0778-3.1523 152.7538-5.8281 152.7538-9.1289Z' fill='#fff'/>
<path d='M152.7538-9.1289C152.7538-12.4336 150.0778-15.1094 146.7778-15.1094C143.4768-15.1094 140.8008-12.4336 140.8008-9.1289C140.8008-5.8281 143.4768-3.1523 146.7778-3.1523C150.0778-3.1523 152.7538-5.8281 152.7538-9.1289Z' stroke='#000' fill='none' stroke-width='.3985' stroke-miterlimit='10'/>
<path d='M130.4568 24.19922H140.4218V14.23438H130.4568Z' fill='#fff'/>
<path d='M130.4568 24.19922H140.4218V14.23438H130.4568Z' stroke='#000' fill='none' stroke-width='.3985' stroke-miterlimit='10'/>
<path d='M153.1368 24.19922H163.0978V14.23438H153.1368Z' fill='#fff'/>
<path d='M153.1368 24.19922H163.0978V14.23438H153.1368Z' stroke='#000' fill='none' stroke-width='.3985' stroke-miterlimit='10'/>
<path d='M80.2778-41.8438L99.8908-61.457' stroke='#000' fill='none' stroke-width='.3985' stroke-miterlimit='10'/>
<path d='M73.1488-31.9531L64.3278-14.3125' stroke='#000' fill='none' stroke-width='.3985' stroke-miterlimit='10'/>
<path d='M78.6718-31.9531L87.4958-14.3125' stroke='#000' fill='none' stroke-width='.3985' stroke-miterlimit='10'/>
<path d='M128.2378-41.8438L108.6248-61.457' stroke='#000' fill='none' stroke-width='.3985' stroke-miterlimit='10'/>
<path d='M129.8438-31.9531L121.0198-14.3125' stroke='#000' fill='none' stroke-width='.3985' stroke-miterlimit='10'/>
<path d='M135.3668-31.9531L144.0158-14.6563' stroke='#000' fill='none' stroke-width='.3985' stroke-miterlimit='10'/>
<path d='M137.5118 14.03516L144.4848-3.3945' stroke='#000' fill='none' stroke-width='.3985' stroke-miterlimit='10'/>
<path d='M156.0428 14.03516L149.0708-3.3945' stroke='#000' fill='none' stroke-width='.3985' stroke-miterlimit='10'/>
</g>
</svg>